{
  "add9bb859ca2a45fa916bde1db73144eb8dcf23bf20f09d6ef8cf296a9bad7cb": true,
  "3da9ab0378dd5af20d06085dbce94b3ba620700e563d2b933fe0d6d533fed01b": true,
  "440c394716f9fe121555fe3df823a39dc1b1b9c0c25bf383610f56f05fe71686": true,
  "d0728571fe850834ab457a58d244a0c95e8c33c3a837f9dcc6b01050d994e529": true,
  "c4546c5b1b5aea525251b8fdd5e2ec0501aef5e89aa7552d239d301930653a04": true,
  "de3086677850fceacd250451e67b21e5cbf4e79970b81289b4742f12d685a10d": true,
  "983985ac673bf43937ab48ff918f028eddcee22f5f4b22228e4521bea1077278": true,
  "a547725230a5b2c50226727b88496e26180cf9dd6a32e1c29b99debb3105538a": true,
  "03875e3156bbc396739c24bbedb8a227d789d8d60c4bb554d9194430a46ad5ba": true,
  "eff049523b8eab7ffe04fe1072852d6ec79d37cc0939213e3a261c61a45db63a": true,
  "7656eea4fb1c238040882b0145b372ff346db07c1e8fe48654ba2cbc96a21e52": true,
  "6a0c165a908ddf3445388f9fc305fb3552ae55be06063bceb026ef1d1f36b95d": true,
  "c9336a53d4200a6796b421989ba49e667fd82a27c82a4068aac56e052c53b3d3": true,
  "3a3318e62388d49d5f8e02642f720432ae068121b8bf41c4426c2158458d7749": true
}